<svg width="30" height="22" viewBox="0 0 30 22" fill="none" xmlns="http://www.w3.org/2000/svg">
<path d="M19.0125 1.03148e-09C16.9673 -2.79857e-05 14.9626 0.56946 13.2228 1.64465C11.4831 2.71984 10.0771 4.25825 9.1625 6.0875C8.39899 7.59919 8.00082 9.26894 8 10.9625C8.00437 11.22 7.91162 11.4697 7.74022 11.662C7.56882 11.8542 7.33133 11.9749 7.075 12C6.93751 12.0103 6.79937 11.9921 6.66925 11.9465C6.53913 11.9009 6.41985 11.8289 6.31889 11.735C6.21794 11.6411 6.1375 11.5273 6.08262 11.4008C6.02774 11.2743 5.99961 11.1379 6 11C6.00051 9.60264 6.22415 8.21433 6.6625 6.8875C6.69175 6.8029 6.69776 6.71199 6.67988 6.62427C6.66201 6.53656 6.62091 6.45525 6.56089 6.38884C6.50086 6.32243 6.42411 6.27335 6.33864 6.24673C6.25317 6.22011 6.16212 6.21692 6.075 6.2375C4.34109 6.66735 2.80093 7.66518 1.69996 9.07198C0.598986 10.4788 0.000546049 12.2136 0 14C0 18.4 3.725 22 8.1125 22H19C21.9174 22.0017 24.7159 20.8443 26.78 18.7826C28.8441 16.7209 30.0046 13.9236 30.0063 11.0063C30.0079 8.08887 28.8506 5.29032 26.7888 3.22624C24.7271 1.16217 21.9299 0.00165765 19.0125 1.03148e-09ZM22.95 13.95C22.758 14.1335 22.503 14.2364 22.2375 14.2375C21.9755 14.2371 21.7242 14.1338 21.5375 13.95L19 11.4125V19C19 19.2652 18.8946 19.5196 18.7071 19.7071C18.5196 19.8946 18.2652 20 18 20C17.7348 20 17.4804 19.8946 17.2929 19.7071C17.1054 19.5196 17 19.2652 17 19V11.4125L14.4625 13.95C14.2723 14.1224 14.0231 14.215 13.7664 14.2086C13.5098 14.2023 13.2655 14.0976 13.0839 13.9161C12.9024 13.7345 12.7977 13.4902 12.7914 13.2336C12.785 12.9769 12.8776 12.7277 13.05 12.5375L17.2875 8.2875C17.4771 8.09972 17.7332 7.99437 18 7.99437C18.2668 7.99437 18.5229 8.09972 18.7125 8.2875L22.95 12.5375C23.137 12.725 23.242 12.979 23.242 13.2437C23.242 13.5085 23.137 13.7625 22.95 13.95Z" fill="#2C2C2C"/>
</svg>
