<svg width="23" height="22" viewBox="0 0 23 22" fill="none" xmlns="http://www.w3.org/2000/svg">
<path d="M10.7888 13.585C12.0927 13.585 13.1498 12.5302 13.1498 11.2291C13.1498 9.92803 12.0927 8.87329 10.7888 8.87329C9.4848 8.87329 8.42773 9.92803 8.42773 11.2291C8.42773 12.5302 9.4848 13.585 10.7888 13.585Z" stroke="#515150" stroke-width="1.5" stroke-linecap="round" stroke-linejoin="round"/>
<path fill-rule="evenodd" clip-rule="evenodd" d="M18.616 7.81L17.6697 6.17833C17.2747 5.5 16.4112 5.27083 15.7313 5.665L15.2628 5.93083C14.3165 6.47167 13.1406 5.79333 13.1406 4.7025V4.16167C13.1406 3.3825 12.5067 2.75 11.7259 2.75H9.83338C9.0525 2.75 8.41863 3.3825 8.41863 4.16167V4.7025C8.41863 5.79333 7.24269 6.47167 6.29645 5.93083L5.82794 5.665C5.14812 5.27083 4.28454 5.50916 3.88951 6.17833L2.94327 7.81C2.54824 8.48833 2.78709 9.35 3.45773 9.74416L3.92627 10.01C4.87251 10.5508 4.87251 11.9167 3.92627 12.4575L3.45773 12.7233C2.7779 13.1175 2.54824 13.9792 2.94327 14.6575L3.88951 16.2892C4.28454 16.9675 5.14812 17.1967 5.82794 16.8025L6.29645 16.5367C7.24269 15.9958 8.41863 16.6742 8.41863 17.765V18.3058C8.41863 19.085 9.0525 19.7175 9.83338 19.7175H11.7259C12.5067 19.7175 13.1406 19.085 13.1406 18.3058V17.765C13.1406 16.6742 14.3165 15.9958 15.2628 16.5367L15.7313 16.8025C16.4112 17.1967 17.2747 16.9583 17.6697 16.2892L18.616 14.6575C19.011 13.9792 18.7721 13.1175 18.1015 12.7233L17.633 12.4575C16.6868 11.9167 16.6868 10.5508 17.633 10.01L18.1015 9.74416C18.7813 9.35 19.011 8.47916 18.616 7.81Z" stroke="#515150" stroke-width="1.5" stroke-linecap="round" stroke-linejoin="round"/>
</svg>
