<svg xmlns="http://www.w3.org/2000/svg" width="166" height="32" viewBox="0 0 166 32" fill="none">
    <g clip-path="url(#clip0_8908_391)">
        <path d="M58.4656 15.6752C58.5301 14.7895 58.3675 13.902 57.9931 13.0967C57.8178 12.8382 57.5761 12.6316 57.2934 12.4986C57.0108 12.3656 56.6976 12.311 56.3866 12.3407C56.1431 12.3413 55.8997 12.3548 55.6576 12.3812C55.4011 12.3812 55.1581 12.4352 54.9219 12.4689V22.7019H51.1621V9.87694C51.4794 9.78919 51.8371 9.70144 52.2826 9.61369C52.7281 9.52594 53.1669 9.43144 53.6326 9.35719C54.0984 9.28294 54.6046 9.22219 55.1109 9.18169C55.6171 9.14119 56.1166 9.12094 56.6026 9.12094C57.3972 9.09345 58.1897 9.21714 58.9381 9.48544C59.4773 9.6927 59.979 9.98684 60.4231 10.3562C61.5436 9.58694 62.8645 9.16225 64.2234 9.13444C65.117 9.10253 66.0079 9.25178 66.8424 9.57319C67.4863 9.84011 68.0494 10.2706 68.4759 10.8219C68.8935 11.3935 69.1794 12.0505 69.3129 12.7457C69.4683 13.5621 69.5429 14.3919 69.5356 15.2229V22.7019H65.7759V15.6752C65.8404 14.7895 65.6777 13.902 65.3034 13.0967C65.1291 12.8387 64.8886 12.6324 64.6071 12.4994C64.3256 12.3664 64.0136 12.3116 63.7036 12.3407C63.4147 12.3567 63.129 12.4089 62.8531 12.4959C62.5362 12.5751 62.2334 12.7026 61.9554 12.8739C62.0777 13.2712 62.1547 13.6811 62.1849 14.0957C62.1849 14.5277 62.2321 14.9867 62.2321 15.4457V22.7019H58.4656V15.6752Z" fill="#0F206C"/>
        <path d="M84.6214 9.4375C83.8609 11.98 83.0666 14.3762 82.2386 16.6262C81.4106 18.8763 80.5106 21.0498 79.5386 23.1467C79.2331 23.8153 78.8789 24.4605 78.4789 25.0773C78.1604 25.5839 77.7667 26.0392 77.3111 26.4272C76.8934 26.7622 76.4141 27.0121 75.9004 27.163C75.297 27.3353 74.6715 27.4172 74.0441 27.406C73.4952 27.4082 72.9475 27.3517 72.4106 27.2373C71.9911 27.1527 71.5799 27.0307 71.1821 26.8727L71.8571 23.8623C72.1958 23.9833 72.5434 24.0781 72.8966 24.1458C73.2137 24.1953 73.5342 24.2201 73.8551 24.22C74.1384 24.2383 74.4225 24.1993 74.6904 24.1054C74.9583 24.0114 75.2045 23.8645 75.4144 23.6732C75.8187 23.2398 76.133 22.7305 76.3391 22.1748C75.4751 20.4873 74.6134 18.595 73.7539 16.498C72.8234 14.1884 72.0146 11.8317 71.3306 9.4375H75.3199C75.4886 10.1125 75.6911 10.7875 75.9206 11.5705C76.1501 12.3535 76.3864 13.1095 76.6429 13.8925C76.8994 14.6755 77.1559 15.4383 77.4191 16.1807C77.6824 16.9233 77.9321 17.5983 78.1684 18.2058C78.3844 17.5983 78.6139 16.9233 78.8434 16.1807C79.0729 15.4383 79.3159 14.6755 79.5184 13.8925C79.7209 13.1095 79.9639 12.3333 80.1934 11.5705C80.4229 10.8077 80.5984 10.0923 80.7671 9.4375H84.6214Z" fill="#0F206C"/>
        <path d="M88.8132 9.66119H94.0242V11.0517H88.8132V17.9772C88.8006 18.5857 88.8641 19.1934 89.0022 19.7862C89.0976 20.1819 89.2849 20.5496 89.5489 20.8594C89.779 21.1071 90.0773 21.2809 90.4062 21.3589C90.7705 21.4487 91.1447 21.4918 91.5199 21.4872C92.0851 21.505 92.6492 21.425 93.1872 21.2509C93.5258 21.126 93.8551 20.9771 94.1727 20.8054L94.5777 22.1554C94.1853 22.3763 93.7685 22.5508 93.3357 22.6752C92.7163 22.8739 92.0691 22.9719 91.4187 22.9654C90.7301 22.9828 90.044 22.8753 89.3937 22.6482C88.8674 22.4768 88.4012 22.1583 88.0504 21.7302C87.708 21.252 87.4773 20.703 87.3754 20.1237C87.2303 19.3744 87.1624 18.6121 87.1729 17.8489V5.82719L88.8132 5.52344V9.66119Z" fill="#0F206C"/>
        <path d="M101.753 9.41088C102.266 9.40864 102.779 9.44928 103.285 9.53238C103.627 9.58117 103.962 9.66718 104.284 9.78888L103.953 11.2064C103.688 11.102 103.412 11.0295 103.13 10.9904C102.592 10.9056 102.048 10.8672 101.503 10.8756C100.93 10.8619 100.357 10.9117 99.7954 11.0241C99.5065 11.0818 99.2239 11.1677 98.9517 11.2806V22.7016H97.3047V10.2681C97.8734 10.0383 98.4576 9.84882 99.0529 9.70113C99.9369 9.49002 100.844 9.39248 101.753 9.41088Z" fill="#0F206C"/>
        <path d="M109.03 5.71909C109.039 5.88918 109.013 6.05932 108.952 6.21858C108.892 6.37783 108.799 6.52269 108.679 6.64384C108.565 6.75373 108.431 6.84011 108.284 6.89802C108.137 6.95594 107.98 6.98425 107.822 6.98134C107.657 6.98645 107.492 6.95692 107.339 6.89466C107.187 6.83239 107.048 6.73878 106.934 6.61985C106.819 6.50092 106.731 6.35931 106.675 6.20416C106.618 6.04902 106.595 5.88377 106.607 5.71909C106.598 5.55605 106.624 5.39302 106.681 5.2403C106.739 5.08758 106.828 4.94848 106.942 4.83177C107.056 4.71507 107.193 4.6233 107.345 4.56225C107.496 4.5012 107.658 4.47221 107.822 4.47709C107.98 4.47418 108.137 4.5025 108.284 4.56041C108.431 4.61833 108.565 4.7047 108.679 4.81459C108.796 4.93363 108.887 5.07522 108.947 5.23072C109.008 5.38623 109.036 5.55239 109.03 5.71909ZM108.652 22.7021H107.012V9.66109H108.652V22.7021Z" fill="#0F206C"/>
        <path d="M114.895 27.4267H113.255V10.1197C113.867 9.91742 114.492 9.75508 115.125 9.63369C116.076 9.46901 117.041 9.39443 118.007 9.41094C118.899 9.39904 119.786 9.55711 120.619 9.87669C121.383 10.1758 122.074 10.6362 122.644 11.2267C123.223 11.8477 123.668 12.5805 123.954 13.3799C124.283 14.2952 124.443 15.2627 124.426 16.2352C124.433 17.1631 124.301 18.0868 124.035 18.9757C123.799 19.7618 123.406 20.492 122.88 21.1222C122.375 21.7233 121.74 22.2031 121.024 22.5262C120.234 22.8749 119.377 23.0477 118.513 23.0324C117.75 23.0491 116.991 22.9255 116.272 22.6679C115.797 22.4972 115.344 22.2706 114.922 21.9929L114.895 27.4267ZM114.895 20.3999C115.05 20.5147 115.239 20.6429 115.462 20.7779C115.716 20.9264 115.983 21.0529 116.259 21.1559C116.578 21.2807 116.908 21.3778 117.244 21.4462C117.61 21.5224 117.984 21.5609 118.358 21.5609C119.056 21.5799 119.749 21.4367 120.383 21.1424C120.921 20.8842 121.386 20.4941 121.733 20.0084C122.088 19.4899 122.34 18.9078 122.475 18.2939C122.624 17.6293 122.699 16.9501 122.698 16.2689C122.798 14.8331 122.335 13.4148 121.409 12.3134C120.973 11.8631 120.447 11.51 119.866 11.2774C119.284 11.0447 118.66 10.9377 118.034 10.9634C117.379 10.9513 116.725 10.9896 116.076 11.0782C115.695 11.1285 115.318 11.2075 114.949 11.3144L114.895 20.3999Z" fill="#0F206C"/>
        <path d="M131.548 22.958C131.057 22.9497 130.569 22.877 130.096 22.742C129.713 22.6286 129.36 22.4302 129.064 22.1615C128.771 21.882 128.553 21.534 128.429 21.149C128.273 20.6467 128.2 20.1223 128.213 19.5965V3.39646L129.86 3.12646V19.5425C129.85 19.8699 129.886 20.1972 129.968 20.5145C130.03 20.735 130.148 20.9353 130.312 21.095C130.48 21.2492 130.685 21.3583 130.906 21.4122C131.193 21.4896 131.483 21.5483 131.777 21.5877L131.548 22.958Z" fill="#0F206C"/>
        <path d="M136.961 5.71854C136.969 5.88912 136.942 6.05955 136.88 6.21884C136.818 6.37812 136.724 6.52271 136.603 6.64329C136.37 6.86061 136.064 6.98151 135.746 6.98151C135.427 6.98151 135.121 6.86061 134.888 6.64329C134.768 6.52271 134.673 6.37812 134.612 6.21884C134.55 6.05955 134.522 5.88912 134.531 5.71854C134.523 5.54804 134.551 5.37785 134.613 5.21869C134.674 5.05953 134.768 4.91485 134.888 4.79379C135.121 4.57646 135.427 4.45557 135.746 4.45557C136.064 4.45557 136.37 4.57646 136.603 4.79379C136.723 4.91485 136.817 5.05953 136.879 5.21869C136.94 5.37785 136.968 5.54804 136.961 5.71854ZM136.583 22.7015H134.936V9.66054H136.583V22.7015Z" fill="#0F206C"/>
        <path d="M141.18 10.1204C141.666 9.9854 142.328 9.83015 143.151 9.6614C144.151 9.47861 145.166 9.39495 146.182 9.41165C147.032 9.38572 147.879 9.53031 148.673 9.8369C149.303 10.0976 149.853 10.5216 150.266 11.0654C150.678 11.6355 150.966 12.2865 151.109 12.9757C151.286 13.7803 151.372 14.6021 151.366 15.4259V22.7024H149.719V15.9524C149.732 15.1651 149.668 14.3785 149.53 13.6034C149.437 13.0419 149.223 12.5075 148.902 12.0374C148.612 11.6366 148.207 11.333 147.741 11.1667C147.157 10.9767 146.546 10.8877 145.932 10.9034C145.255 10.8963 144.578 10.9369 143.907 11.0249C143.534 11.0689 143.166 11.1457 142.807 11.2544V22.7024H141.167L141.18 10.1204Z" fill="#0F206C"/>
        <path d="M155.031 16.1809C155.018 15.1585 155.194 14.1424 155.551 13.1839C155.838 12.3962 156.276 11.6718 156.84 11.0509C157.342 10.4951 157.963 10.0591 158.656 9.7752C159.326 9.49937 160.044 9.35721 160.769 9.3567C161.482 9.32575 162.193 9.44971 162.854 9.72005C163.515 9.99039 164.109 10.4007 164.596 10.9227C165.55 11.9667 166.027 13.5777 166.027 15.7557C166.027 15.8907 166.027 16.0257 166.027 16.1539C166.027 16.2822 166.027 16.4172 165.986 16.5387H156.773C156.729 17.8677 157.149 19.1705 157.961 20.2242C158.703 21.0882 159.884 21.5134 161.498 21.5134C162.215 21.5365 162.931 21.4523 163.624 21.2637C164.012 21.1472 164.391 21.0029 164.758 20.8317L165.062 22.2492C164.629 22.4548 164.177 22.6154 163.712 22.7284C162.967 22.9238 162.2 23.0169 161.43 23.0052C160.428 23.0311 159.43 22.8591 158.494 22.4989C157.73 22.1896 157.048 21.7066 156.503 21.0882C155.966 20.4597 155.576 19.7195 155.362 18.9214C155.125 18.0277 155.014 17.1054 155.031 16.1809ZM164.326 15.1482C164.363 14.009 164.024 12.8892 163.361 11.9622C163.052 11.583 162.658 11.2821 162.211 11.0838C161.764 10.8856 161.277 10.7957 160.789 10.8214C160.241 10.8107 159.699 10.9335 159.209 11.1792C158.748 11.4136 158.335 11.7344 157.994 12.1242C157.647 12.5234 157.373 12.9803 157.184 13.4742C156.988 14.0029 156.872 14.5581 156.84 15.1212L164.326 15.1482Z" fill="#0F206C"/>
        <path d="M40.4763 26.8673L35.6163 3.70131C35.2653 2.02056 34.4013 0.900061 33.1863 0.542311C31.9713 0.184561 30.6348 0.663811 29.4333 1.89231L15.0355 16.4453C14.4953 16.9373 14.0882 17.558 13.8522 18.2496C13.6161 18.9411 13.5588 19.6811 13.6855 20.4008C13.8599 21.1068 14.2091 21.7575 14.701 22.293C15.1929 22.8285 15.8117 23.2317 16.5003 23.4653L35.5353 31.0253C36.1522 31.2816 36.8114 31.4212 37.4793 31.4371C38.2133 31.4614 38.9317 31.2219 39.5043 30.7621C40.483 29.9183 40.8003 28.5481 40.4763 26.8673Z" fill="#4370FF"/>
        <path d="M4.0942 31.4363C3.36003 31.4619 2.6412 31.2223 2.0692 30.7613C1.0972 29.9176 0.7597 28.5473 1.1107 26.8666L5.9707 3.70059C6.3217 2.01984 7.1857 0.899341 8.4007 0.541591C9.6157 0.183841 10.9522 0.656341 12.1537 1.89159L26.5447 16.4446C27.0917 16.9328 27.5061 17.5516 27.7493 18.2433C27.9924 18.935 28.0564 19.677 27.9352 20.4001C27.7558 21.1111 27.3993 21.765 26.8988 22.3009C26.3984 22.8368 25.7703 23.2371 25.0732 23.4646L6.04495 31.0246C5.42557 31.2807 4.76424 31.4203 4.0942 31.4363ZM9.1972 2.22234C9.09902 2.22207 9.0013 2.2357 8.90695 2.26284C8.3602 2.45184 7.9282 3.07959 7.7257 4.06509L2.8657 27.2378C2.65645 28.2233 2.7847 28.9996 3.22345 29.3708C3.6622 29.7421 4.4452 29.7286 5.38345 29.3708L24.4117 21.8041C24.8306 21.6802 25.2118 21.4535 25.5207 21.1446C25.8296 20.8357 26.0563 20.4545 26.1802 20.0356C26.2365 19.6017 26.1832 19.1607 26.0252 18.7527C25.8672 18.3447 25.6095 17.9829 25.2757 17.7001L10.8779 3.12684C10.4549 2.62036 9.85294 2.29641 9.1972 2.22234Z" fill="#35C9FF"/>
    </g>
    <defs>
        <clipPath id="clip0_8908_391">
            <rect width="165.024" height="31.0095" fill="white" transform="translate(0.974854 0.425293)"/>
        </clipPath>
    </defs>
</svg>