<svg width="23" height="22" viewBox="0 0 23 22" fill="none" xmlns="http://www.w3.org/2000/svg">
<path d="M18.0909 16.1609C16.4959 14.7309 14.1308 13.8325 11.5 13.8325C8.86918 13.8325 6.50418 14.74 4.90918 16.1609" stroke="#515150" stroke-width="1.5" stroke-linecap="round" stroke-linejoin="round"/>
<path d="M11.4999 11C12.801 11 13.8557 9.94526 13.8557 8.64417C13.8557 7.34308 12.801 6.28833 11.4999 6.28833C10.1988 6.28833 9.14404 7.34308 9.14404 8.64417C9.14404 9.94526 10.1988 11 11.4999 11Z" stroke="#515150" stroke-width="1.5" stroke-linecap="round" stroke-linejoin="round"/>
<path d="M11.4999 19.4791C16.1828 19.4791 19.9791 15.6828 19.9791 10.9999C19.9791 6.317 16.1828 2.52075 11.4999 2.52075C6.817 2.52075 3.02075 6.317 3.02075 10.9999C3.02075 15.6828 6.817 19.4791 11.4999 19.4791Z" stroke="#515150" stroke-width="1.5" stroke-linecap="round" stroke-linejoin="round"/>
</svg>
