<svg width="20" height="15" viewBox="0 0 20 15" fill="none" xmlns="http://www.w3.org/2000/svg">
<path d="M0.733887 14.2492C0.798958 12.9445 0.748676 11.6908 0.949805 10.476C1.20713 8.91703 2.40504 7.97148 3.9845 7.94156C6.07566 7.90266 8.16977 7.89369 10.2639 7.94156C12.1243 7.98645 13.3696 9.33893 13.3873 11.215C13.3873 12.2085 13.3873 13.2019 13.3873 14.2462L0.733887 14.2492Z" fill="#4370FF"/>
<path d="M3.9989 3.13354C4.0118 2.5092 4.20711 1.9027 4.56021 1.39047C4.91332 0.878253 5.40841 0.483241 5.98308 0.255229C6.55775 0.0272165 7.18629 -0.0235905 7.78946 0.109211C8.39263 0.242013 8.94345 0.55248 9.37247 1.00148C9.80149 1.45048 10.0895 2.01791 10.2003 2.63226C10.311 3.2466 10.2395 3.88037 9.99474 4.45366C9.74999 5.02695 9.34295 5.51412 8.82494 5.85375C8.30692 6.19338 7.70112 6.37028 7.08388 6.36214C6.25204 6.34641 5.46028 5.99777 4.88204 5.39261C4.3038 4.78745 3.98623 3.97511 3.9989 3.13354Z" fill="#4370FF"/>
<path d="M13.751 7.97493C14.9341 7.97493 15.9516 7.88816 16.9365 7.99588C18.4627 8.16045 19.5335 9.30946 19.6843 10.9432C19.7849 12.0234 19.7021 13.1185 19.7021 14.2556H15.014C14.7921 12.1491 15.4724 9.89892 13.751 7.97493Z" fill="#4370FF"/>
<path d="M16.5167 3.08546C16.5333 3.65459 16.3979 4.21773 16.1247 4.71554C15.8515 5.21336 15.4507 5.62743 14.9644 5.91414C14.4782 6.20084 13.9245 6.34957 13.3616 6.34464C12.7988 6.33972 12.2478 6.18134 11.7665 5.88617C11.4115 5.6827 11.2222 5.48821 11.4381 5.00646C11.7072 4.42854 11.8468 3.7976 11.8468 3.15877C11.8468 2.51994 11.7072 1.889 11.4381 1.31108C11.2607 0.907127 11.3819 0.712632 11.6955 0.533099C12.1562 0.213794 12.6957 0.0304171 13.2535 0.00346781C13.8114 -0.0234815 14.3657 0.107059 14.8544 0.380497C15.3538 0.628988 15.7743 1.01419 16.0681 1.49234C16.362 1.9705 16.5174 2.52244 16.5167 3.08546Z" fill="#4370FF"/>
</svg>
