<svg width="24" height="24" viewBox="0 0 24 24" fill="none" xmlns="http://www.w3.org/2000/svg">
<path d="M14.7099 8.11997L10.8299 12L14.7099 15.88C15.0999 16.27 15.0999 16.9 14.7099 17.29C14.3199 17.68 13.6899 17.68 13.2999 17.29L8.70994 12.7C8.31994 12.31 8.31994 11.68 8.70994 11.29L13.2999 6.69997C13.6899 6.30997 14.3199 6.30997 14.7099 6.69997C15.0899 7.08997 15.0999 7.72997 14.7099 8.11997Z" fill="#FFA52F"/>
</svg>
