<svg width="22" height="22" viewBox="0 0 22 22" fill="none" xmlns="http://www.w3.org/2000/svg">
<path d="M13.9463 14.1429C14.7053 14.1429 15.3213 14.7589 15.3213 15.5179V17.0909L15.315 17.1757C15.0714 18.847 13.5707 19.65 11.0525 19.65C8.54372 19.65 7.01865 18.8564 6.68943 17.2048L6.67843 17.0893V15.5179C6.67843 14.7589 7.29443 14.1429 8.05343 14.1429H13.9463ZM14.3344 9.4286H19.0534C19.8124 9.4286 20.4284 10.0446 20.4284 10.8036V12.3766L20.4221 12.4615C20.1786 14.1327 18.6779 14.9357 16.1596 14.9357L16.0276 14.9341C15.9065 14.5035 15.6548 14.121 15.3072 13.8394C14.9597 13.5579 14.5333 13.391 14.0869 13.3619L13.9463 13.3572H13.2219C13.6324 13.0261 13.9636 12.6072 14.1909 12.1313C14.4183 11.6554 14.536 11.1346 14.5356 10.6072C14.5356 10.1939 14.4649 9.79788 14.3344 9.4286ZM2.94629 9.4286H7.66529C7.53486 9.79788 7.46415 10.1939 7.46415 10.6072C7.46415 11.6522 7.91829 12.5927 8.63958 13.2393L8.77786 13.3572H8.05343C7.06186 13.3572 6.22586 14.025 5.97129 14.9365L5.94536 14.9357C3.43657 14.9357 1.9115 14.1421 1.58229 12.4905L1.57129 12.375V10.8036C1.57129 10.0446 2.18729 9.4286 2.94629 9.4286ZM10.9999 7.85717C11.7292 7.85717 12.4287 8.1469 12.9444 8.66263C13.4601 9.17835 13.7499 9.87782 13.7499 10.6072C13.7499 11.3365 13.4601 12.036 12.9444 12.5517C12.4287 13.0674 11.7292 13.3572 10.9999 13.3572C10.2705 13.3572 9.57104 13.0674 9.05532 12.5517C8.53959 12.036 8.24986 11.3365 8.24986 10.6072C8.24986 9.87782 8.53959 9.17835 9.05532 8.66263C9.57104 8.1469 10.2705 7.85717 10.9999 7.85717ZM16.107 3.14288C16.8363 3.14288 17.5358 3.43261 18.0515 3.94834C18.5673 4.46406 18.857 5.16354 18.857 5.89288C18.857 6.62223 18.5673 7.3217 18.0515 7.83743C17.5358 8.35315 16.8363 8.64288 16.107 8.64288C15.3777 8.64288 14.6782 8.35315 14.1625 7.83743C13.6467 7.3217 13.357 6.62223 13.357 5.89288C13.357 5.16354 13.6467 4.46406 14.1625 3.94834C14.6782 3.43261 15.3777 3.14288 16.107 3.14288ZM5.89272 3.14288C6.62206 3.14288 7.32154 3.43261 7.83726 3.94834C8.35299 4.46406 8.64272 5.16354 8.64272 5.89288C8.64272 6.62223 8.35299 7.3217 7.83726 7.83743C7.32154 8.35315 6.62206 8.64288 5.89272 8.64288C5.16337 8.64288 4.4639 8.35315 3.94817 7.83743C3.43245 7.3217 3.14272 6.62223 3.14272 5.89288C3.14272 5.16354 3.43245 4.46406 3.94817 3.94834C4.4639 3.43261 5.16337 3.14288 5.89272 3.14288Z" fill="#2C2C2C"/>
</svg>
