<svg width="22" height="22" viewBox="0 0 22 22" fill="none" xmlns="http://www.w3.org/2000/svg">
<path d="M13.5975 12.4667C14.5818 12.4667 15.528 12.8315 16.2389 13.485C16.9498 14.1385 17.3705 15.0302 17.4132 15.9742L17.417 16.1333V16.8667C17.4171 17.2367 17.2715 17.5931 17.0095 17.8644C16.7474 18.1357 16.3882 18.3019 16.0038 18.3297L15.8892 18.3333H5.19477C4.80933 18.3334 4.43809 18.1937 4.15546 17.9421C3.87284 17.6905 3.69972 17.3456 3.67081 16.9767L3.66699 16.8667V16.1333C3.66705 15.1885 4.04706 14.2801 4.72777 13.5976C5.40849 12.9152 6.33736 12.5113 7.32067 12.4703L7.48644 12.4667H13.5975ZM10.542 3.66666C11.555 3.66666 12.5265 4.05296 13.2427 4.7406C13.959 5.42823 14.3614 6.36086 14.3614 7.33332C14.3614 8.30578 13.959 9.23841 13.2427 9.92605C12.5265 10.6137 11.555 11 10.542 11C9.52901 11 8.55752 10.6137 7.84124 9.92605C7.12495 9.23841 6.72255 8.30578 6.72255 7.33332C6.72255 6.36086 7.12495 5.42823 7.84124 4.7406C8.55752 4.05296 9.52901 3.66666 10.542 3.66666Z" fill="#2C2C2C"/>
</svg>
