<svg width="22" height="22" viewBox="0 0 22 22" fill="none" xmlns="http://www.w3.org/2000/svg">
<path fill-rule="evenodd" clip-rule="evenodd" d="M1.83301 4.58331C1.83301 3.85397 2.12274 3.15449 2.63846 2.63877C3.15419 2.12304 3.85366 1.83331 4.58301 1.83331H10.2407C10.9696 1.83371 11.6686 2.12353 12.184 2.63906L19.5173 9.9724C20.0329 10.4881 20.3225 11.1874 20.3225 11.9166C20.3225 12.6458 20.0329 13.3452 19.5173 13.8609L13.8615 19.5186C13.6061 19.774 13.303 19.9766 12.9693 20.1148C12.6356 20.253 12.278 20.3242 11.9168 20.3242C11.5556 20.3242 11.198 20.253 10.8643 20.1148C10.5306 19.9766 10.2275 19.774 9.97209 19.5186L2.63876 12.1852C2.123 11.6696 1.83316 10.9703 1.83301 10.241V4.58331ZM6.41634 5.49998C6.17323 5.49998 5.94007 5.59656 5.76816 5.76847C5.59625 5.94037 5.49967 6.17353 5.49967 6.41665C5.49967 6.65976 5.59625 6.89292 5.76816 7.06483C5.94007 7.23674 6.17323 7.33331 6.41634 7.33331H6.41726C6.66037 7.33331 6.89353 7.23674 7.06544 7.06483C7.23735 6.89292 7.33392 6.65976 7.33392 6.41665C7.33392 6.17353 7.23735 5.94037 7.06544 5.76847C6.89353 5.59656 6.66037 5.49998 6.41726 5.49998H6.41634Z" fill="#2C2C2C"/>
</svg>
