<svg width="22" height="22" viewBox="0 0 22 22" fill="none" xmlns="http://www.w3.org/2000/svg">
<g clip-path="url(#clip0_5437_10936)">
<path d="M7.94488 5.63447C7.94488 4.82408 8.2668 4.04689 8.83983 3.47386C9.41286 2.90084 10.1901 2.57891 11.0004 2.57891C11.8108 2.57891 12.588 2.90084 13.161 3.47386C13.7341 4.04689 14.056 4.82408 14.056 5.63447V7.33336H15.2782V5.63447C15.2782 5.0727 15.1676 4.51644 14.9526 3.99743C14.7376 3.47843 14.4225 3.00685 14.0253 2.60962C13.6281 2.21239 13.1565 1.89729 12.6375 1.68232C12.1185 1.46734 11.5622 1.35669 11.0004 1.35669C10.4387 1.35669 9.8824 1.46734 9.3634 1.68232C8.8444 1.89729 8.37282 2.21239 7.97559 2.60962C7.57836 3.00685 7.26326 3.47843 7.04828 3.99743C6.8333 4.51644 6.72266 5.0727 6.72266 5.63447V7.33336H7.94488V5.63447Z" fill="#2C2C2C"/>
<path d="M15.2777 7.33331V9.22776C15.2777 9.38983 15.2133 9.54527 15.0987 9.65988C14.9841 9.77448 14.8286 9.83887 14.6666 9.83887C14.5045 9.83887 14.349 9.77448 14.2344 9.65988C14.1198 9.54527 14.0554 9.38983 14.0554 9.22776V7.33331H7.94434V9.22776C7.94434 9.38983 7.87995 9.54527 7.76535 9.65988C7.65074 9.77448 7.4953 9.83887 7.33323 9.83887C7.17115 9.83887 7.01571 9.77448 6.9011 9.65988C6.7865 9.54527 6.72211 9.38983 6.72211 9.22776V7.33331H2.44434V19.5555C2.44434 19.8797 2.57311 20.1906 2.80232 20.4198C3.03153 20.649 3.3424 20.7778 3.66656 20.7778H18.3332C18.6574 20.7778 18.9683 20.649 19.1975 20.4198C19.4267 20.1906 19.5554 19.8797 19.5554 19.5555V7.33331H15.2777Z" fill="#2C2C2C"/>
</g>
<defs>
<clipPath id="clip0_5437_10936">
<rect width="22" height="22" fill="white"/>
</clipPath>
</defs>
</svg>
