<svg width="22" height="22" viewBox="0 0 22 22" fill="none" xmlns="http://www.w3.org/2000/svg">
<g clip-path="url(#clip0_5438_9542)">
<path d="M17.8104 11.8983C17.8471 11.605 17.8746 11.3116 17.8746 11C17.8746 10.6883 17.8471 10.395 17.8104 10.1016L19.7446 8.58915C19.9188 8.45165 19.9646 8.20415 19.8546 8.00248L18.0213 4.83081C17.9113 4.62915 17.6638 4.55581 17.4621 4.62915L15.1796 5.54581C14.7029 5.17915 14.1896 4.87665 13.6304 4.64748L13.2821 2.21831C13.2546 1.99831 13.0621 1.83331 12.8329 1.83331H9.16628C8.93711 1.83331 8.74461 1.99831 8.71711 2.21831L8.36878 4.64748C7.80961 4.87665 7.29628 5.18831 6.81961 5.54581L4.53711 4.62915C4.32628 4.54665 4.08794 4.62915 3.97794 4.83081L2.14461 8.00248C2.02544 8.20415 2.08044 8.45165 2.25461 8.58915L4.18878 10.1016C4.15211 10.395 4.12461 10.6975 4.12461 11C4.12461 11.3025 4.15211 11.605 4.18878 11.8983L2.25461 13.4108C2.08044 13.5483 2.03461 13.7958 2.14461 13.9975L3.97794 17.1691C4.08794 17.3708 4.33544 17.4441 4.53711 17.3708L6.81961 16.4541C7.29628 16.8208 7.80961 17.1233 8.36878 17.3525L8.71711 19.7816C8.74461 20.0016 8.93711 20.1666 9.16628 20.1666H12.8329C13.0621 20.1666 13.2546 20.0016 13.2821 19.7816L13.6304 17.3525C14.1896 17.1233 14.7029 16.8116 15.1796 16.4541L17.4621 17.3708C17.6729 17.4533 17.9113 17.3708 18.0213 17.1691L19.8546 13.9975C19.9646 13.7958 19.9188 13.5483 19.7446 13.4108L17.8104 11.8983ZM10.9996 14.2083C9.23044 14.2083 7.79128 12.7691 7.79128 11C7.79128 9.23081 9.23044 7.79165 10.9996 7.79165C12.7688 7.79165 14.2079 9.23081 14.2079 11C14.2079 12.7691 12.7688 14.2083 10.9996 14.2083Z" fill="#2C2C2C"/>
</g>
<defs>
<clipPath id="clip0_5438_9542">
<rect width="22" height="22" fill="white"/>
</clipPath>
</defs>
</svg>
