<svg width="17" height="17" viewBox="0 0 17 17" fill="none" xmlns="http://www.w3.org/2000/svg">
<path d="M8.73047 2C6.24609 2 4.23047 3.91844 4.23047 6.28125C4.23047 9 7.23047 13.3084 8.33203 14.7966C8.37776 14.8594 8.43769 14.9105 8.50693 14.9457C8.57618 14.981 8.65277 14.9994 8.73047 14.9994C8.80817 14.9994 8.88476 14.981 8.95401 14.9457C9.02325 14.9105 9.08318 14.8594 9.12891 14.7966C10.2305 13.3091 13.2305 9.00219 13.2305 6.28125C13.2305 3.91844 11.2148 2 8.73047 2Z" fill="#232321" stroke="#232321" stroke-width="1.5" stroke-linecap="round" stroke-linejoin="round"/>
<path d="M8.73047 8C9.5589 8 10.2305 7.32843 10.2305 6.5C10.2305 5.67157 9.5589 5 8.73047 5C7.90204 5 7.23047 5.67157 7.23047 6.5C7.23047 7.32843 7.90204 8 8.73047 8Z" stroke="#2C2C2C" stroke-width="1.5" stroke-linecap="round" stroke-linejoin="round"/>
</svg>
