<svg width="73" height="72" viewBox="0 0 73 72" fill="none" xmlns="http://www.w3.org/2000/svg">
<g filter="url(#filter0_d_7111_42557)">
<g filter="url(#filter1_d_7111_42557)">
<circle cx="35.3667" cy="35" r="16" fill="url(#paint0_linear_7111_42557)"/>
</g>
<path d="M29.1454 31.1344L30.7952 29.4914C30.9847 29.3025 31.175 29.118 31.3623 28.9239C31.5958 28.6872 31.6107 28.3743 31.4018 28.1577C31.1929 27.9411 30.8646 27.9449 30.6228 28.1861C29.5976 29.2097 28.5735 30.2345 27.5508 31.2606C27.306 31.5062 27.3045 31.8079 27.5508 32.0536C28.573 33.0802 29.5971 34.105 30.6228 35.1281C30.8646 35.3693 31.1877 35.379 31.4018 35.158C31.616 34.9369 31.5958 34.624 31.3511 34.3784C30.6661 33.6918 29.9803 33.0058 29.2939 32.3202C29.2556 32.2886 29.2144 32.2609 29.1707 32.2373L29.1983 32.1918C29.2498 32.1918 29.3013 32.1821 29.3536 32.1821L43.4302 32.1798C43.5118 32.1842 43.5936 32.1796 43.6742 32.1664C43.7977 32.1383 43.9068 32.0662 43.9811 31.9635C44.0555 31.8609 44.09 31.7347 44.0783 31.6085C44.0667 31.4823 44.0095 31.3646 43.9176 31.2774C43.8257 31.1901 43.7052 31.1393 43.5787 31.1344C43.3369 31.1246 43.0937 31.1344 42.8512 31.1344H29.1454Z" fill="#4370FF"/>
<path d="M42.2505 38.4526H28.0402C27.6134 38.4526 27.3687 38.646 27.3687 38.9798C27.3687 39.3137 27.6149 39.5026 28.0462 39.5026H42.3131C41.9214 39.8902 41.567 40.2367 41.2177 40.5862C40.8432 40.9591 40.4701 41.3324 40.0985 41.7063C39.8567 41.9498 39.844 42.2709 40.0627 42.4867C40.2813 42.7025 40.5977 42.6854 40.8417 42.4412C41.857 41.425 42.872 40.4082 43.8868 39.3906C44.1547 39.1225 44.1525 38.8275 43.8831 38.5572L40.8499 35.5215C40.5969 35.2683 40.2783 35.2489 40.0574 35.473C39.8366 35.697 39.8604 36.0106 40.1156 36.2668C40.7971 36.9493 41.4789 37.6312 42.1609 38.3122C42.1987 38.3444 42.2392 38.3734 42.2818 38.3988L42.2505 38.4526Z" fill="#FFA52F"/>
</g>
<defs>
<filter id="filter0_d_7111_42557" x="0.366699" y="0" width="72" height="72" filterUnits="userSpaceOnUse" color-interpolation-filters="sRGB">
<feFlood flood-opacity="0" result="BackgroundImageFix"/>
<feColorMatrix in="SourceAlpha" type="matrix" values="0 0 0 0 0 0 0 0 0 0 0 0 0 0 0 0 0 0 127 0" result="hardAlpha"/>
<feOffset dx="1" dy="1"/>
<feGaussianBlur stdDeviation="10"/>
<feComposite in2="hardAlpha" operator="out"/>
<feColorMatrix type="matrix" values="0 0 0 0 0 0 0 0 0 0 0 0 0 0 0 0 0 0 0.1 0"/>
<feBlend mode="normal" in2="BackgroundImageFix" result="effect1_dropShadow_7111_42557"/>
<feBlend mode="normal" in="SourceGraphic" in2="effect1_dropShadow_7111_42557" result="shape"/>
</filter>
<filter id="filter1_d_7111_42557" x="4.3667" y="4" width="62" height="62" filterUnits="userSpaceOnUse" color-interpolation-filters="sRGB">
<feFlood flood-opacity="0" result="BackgroundImageFix"/>
<feColorMatrix in="SourceAlpha" type="matrix" values="0 0 0 0 0 0 0 0 0 0 0 0 0 0 0 0 0 0 127 0" result="hardAlpha"/>
<feOffset/>
<feGaussianBlur stdDeviation="7.5"/>
<feColorMatrix type="matrix" values="0 0 0 0 0 0 0 0 0 0 0 0 0 0 0 0 0 0 0.05 0"/>
<feBlend mode="normal" in2="BackgroundImageFix" result="effect1_dropShadow_7111_42557"/>
<feBlend mode="normal" in="SourceGraphic" in2="effect1_dropShadow_7111_42557" result="shape"/>
</filter>
<linearGradient id="paint0_linear_7111_42557" x1="19.3667" y1="19" x2="62.1797" y2="37.0235" gradientUnits="userSpaceOnUse">
<stop stop-color="white" stop-opacity="0.82"/>
<stop offset="1" stop-color="white" stop-opacity="0.8"/>
</linearGradient>
</defs>
</svg>
